{
    "name": "Installers",
    "references": [
        "Casual.Data",
        "Casual.Data.Interfaces",
        "Casual.Logic",
        "Casual.Logic.Interfaces",
        "Casual.Ui",
        "Casual.Ui.Interfaces",
        "UniRx",
        "Zenject",
        "Casual.Presenters.Interfaces",
        "Casual.Presenters"
    ],
    "optionalUnityReferences": [],
    "includePlatforms": [],
    "excludePlatforms": [],
    "allowUnsafeCode": false,
    "overrideReferences": false,
    "precompiledReferences": [],
    "autoReferenced": true,
    "defineConstraints": []
}