{
    "name": "Casual.Logic",
    "references": [
        "Casual.Logic.Interfaces",
        "UniRx",
        "Casual.Data.Interfaces"
    ],
    "optionalUnityReferences": [],
    "includePlatforms": [],
    "excludePlatforms": [],
    "allowUnsafeCode": false,
    "overrideReferences": false,
    "precompiledReferences": [],
    "autoReferenced": true,
    "defineConstraints": []
}