{
    "name": "Casual.Ui.Interfaces",
    "references": [
        "Casual.Data.Interfaces",
        "Unity.TextMeshPro"
    ],
    "optionalUnityReferences": [],
    "includePlatforms": [],
    "excludePlatforms": [],
    "allowUnsafeCode": false,
    "overrideReferences": false,
    "precompiledReferences": [],
    "autoReferenced": true,
    "defineConstraints": []
}